<?xml version="1.0" encoding="UTF-8" standalone="no"?><svg xmlns="http://www.w3.org/2000/svg" xmlns:xlink="http://www.w3.org/1999/xlink" contentStyleType="text/css" height="435px" preserveAspectRatio="none" style="width:418px;height:435px;background:#FFFFFF;" version="1.1" viewBox="0 0 418 435" width="418px" zoomAndPan="magnify"><defs><linearGradient id="gb3dx3hykk8c30" x1="0%" x2="100%" y1="100%" y2="0%"><stop offset="0%" stop-color="#98FB98"/><stop offset="100%" stop-color="#008000"/></linearGradient></defs><g><rect fill="none" height="26.2969" id="_title" style="stroke:none;stroke-width:1.0;" width="265" x="75" y="15"/><text fill="#000000" font-family="sans-serif" font-size="14" font-weight="bold" lengthAdjust="spacing" textLength="255" x="80" y="32.9951">Software distribution workflow</text><ellipse cx="209" cy="57.2969" fill="#222222" rx="10" ry="10" style="stroke:#222222;stroke-width:1.0;"/><rect fill="#555555" height="6" rx="2.5" ry="2.5" style="stroke:#555555;stroke-width:1.0;" width="396" x="11" y="87.2969"/><rect fill="#F1F1F1" height="33.9688" rx="12.5" ry="12.5" style="stroke:#181818;stroke-width:0.5;" width="172" x="24.5" y="113.2969"/><text fill="#000000" font-family="sans-serif" font-size="12" lengthAdjust="spacing" textLength="148" x="38.5" y="134.4355">Register in Eureca (CIPS)</text><rect fill="#F1F1F1" height="47.9375" rx="12.5" ry="12.5" style="stroke:#181818;stroke-width:0.5;" width="175" x="23" y="182.2656"/><text fill="#000000" font-family="sans-serif" font-size="12" lengthAdjust="spacing" textLength="151" x="37" y="203.4043">Request IP clearance and</text><text fill="#000000" font-family="sans-serif" font-size="12" lengthAdjust="spacing" textLength="154" x="33" y="217.373">get advise on distribution</text><rect fill="#F1F1F1" height="47.9375" rx="12.5" ry="12.5" style="stroke:#181818;stroke-width:0.5;" width="169" x="226" y="147.7813"/><text fill="#000000" font-family="sans-serif" font-size="12" lengthAdjust="spacing" textLength="115" x="248" y="168.9199">Perform or request</text><text fill="#000000" font-family="sans-serif" font-size="12" lengthAdjust="spacing" textLength="149" x="236" y="182.8887">vulnerability assessment</text><polygon fill="#F1F1F1" points="209,240.2031,221,252.2031,209,264.2031,197,252.2031,209,240.2031" style="stroke:#181818;stroke-width:0.5;"/><polygon fill="#F1F1F1" points="171.5,284.2031,246.5,284.2031,258.5,296.2031,246.5,308.2031,171.5,308.2031,159.5,296.2031,171.5,284.2031" style="stroke:#181818;stroke-width:0.5;"/><text fill="#000000" font-family="sans-serif" font-size="11" lengthAdjust="spacing" textLength="75" x="171.5" y="300.0112">Open Source</text><text fill="#000000" font-family="sans-serif" font-size="11" lengthAdjust="spacing" textLength="21" x="138.5" y="293.6089">yes</text><text fill="#000000" font-family="sans-serif" font-size="11" lengthAdjust="spacing" textLength="14" x="258.5" y="293.6089">no</text><rect fill="url(#gb3dx3hykk8c30)" height="33.9688" rx="12.5" ry="12.5" style="stroke:#181818;stroke-width:0.5;" width="157" x="44" y="318.2031"/><text fill="#000000" font-family="sans-serif" font-size="12" lengthAdjust="spacing" textLength="137" x="54" y="339.3418">https://code.europa.eu</text><rect fill="#FFA500" height="33.9688" rx="12.5" ry="12.5" style="stroke:#181818;stroke-width:0.5;" width="149" x="221" y="318.2031"/><text fill="#000000" font-family="sans-serif" font-size="12" lengthAdjust="spacing" textLength="129" x="231" y="339.3418">Commission Decision</text><polygon fill="#F1F1F1" points="209,358.1719,221,370.1719,209,382.1719,197,370.1719,209,358.1719" style="stroke:#181818;stroke-width:0.5;"/><ellipse cx="209" cy="413.1719" fill="none" rx="11" ry="11" style="stroke:#222222;stroke-width:1.0;"/><ellipse cx="209" cy="413.1719" fill="#222222" rx="6" ry="6" style="stroke:#111111;stroke-width:1.0;"/><line style="stroke:#181818;stroke-width:1.0;" x1="110.5" x2="110.5" y1="147.2656" y2="182.2656"/><polygon fill="#181818" points="106.5,172.2656,110.5,182.2656,114.5,172.2656,110.5,176.2656" style="stroke:#181818;stroke-width:1.0;"/><line style="stroke:#181818;stroke-width:1.0;" x1="110.5" x2="110.5" y1="93.2969" y2="113.2969"/><polygon fill="#181818" points="106.5,103.2969,110.5,113.2969,114.5,103.2969,110.5,107.2969" style="stroke:#181818;stroke-width:1.0;"/><line style="stroke:#181818;stroke-width:1.0;" x1="310.5" x2="310.5" y1="93.2969" y2="147.7813"/><polygon fill="#181818" points="306.5,137.7813,310.5,147.7813,314.5,137.7813,310.5,141.7813" style="stroke:#181818;stroke-width:1.0;"/><line style="stroke:#181818;stroke-width:1.0;" x1="110.5" x2="110.5" y1="230.2031" y2="252.2031"/><line style="stroke:#181818;stroke-width:1.0;" x1="110.5" x2="197" y1="252.2031" y2="252.2031"/><polygon fill="#181818" points="187,248.2031,197,252.2031,187,256.2031,191,252.2031" style="stroke:#181818;stroke-width:1.0;"/><line style="stroke:#181818;stroke-width:1.0;" x1="310.5" x2="310.5" y1="195.7188" y2="252.2031"/><line style="stroke:#181818;stroke-width:1.0;" x1="310.5" x2="221" y1="252.2031" y2="252.2031"/><polygon fill="#181818" points="231,248.2031,221,252.2031,231,256.2031,227,252.2031" style="stroke:#181818;stroke-width:1.0;"/><line style="stroke:#181818;stroke-width:1.0;" x1="209" x2="209" y1="67.2969" y2="87.2969"/><polygon fill="#181818" points="205,77.2969,209,87.2969,213,77.2969,209,81.2969" style="stroke:#181818;stroke-width:1.0;"/><line style="stroke:#181818;stroke-width:1.0;" x1="159.5" x2="122.5" y1="296.2031" y2="296.2031"/><line style="stroke:#181818;stroke-width:1.0;" x1="122.5" x2="122.5" y1="296.2031" y2="318.2031"/><polygon fill="#181818" points="118.5,308.2031,122.5,318.2031,126.5,308.2031,122.5,312.2031" style="stroke:#181818;stroke-width:1.0;"/><line style="stroke:#181818;stroke-width:1.0;" x1="258.5" x2="295.5" y1="296.2031" y2="296.2031"/><line style="stroke:#181818;stroke-width:1.0;" x1="295.5" x2="295.5" y1="296.2031" y2="318.2031"/><polygon fill="#181818" points="291.5,308.2031,295.5,318.2031,299.5,308.2031,295.5,312.2031" style="stroke:#181818;stroke-width:1.0;"/><line style="stroke:#181818;stroke-width:1.0;" x1="122.5" x2="122.5" y1="352.1719" y2="370.1719"/><line style="stroke:#181818;stroke-width:1.0;" x1="122.5" x2="197" y1="370.1719" y2="370.1719"/><polygon fill="#181818" points="187,366.1719,197,370.1719,187,374.1719,191,370.1719" style="stroke:#181818;stroke-width:1.0;"/><line style="stroke:#181818;stroke-width:1.0;" x1="295.5" x2="295.5" y1="352.1719" y2="370.1719"/><line style="stroke:#181818;stroke-width:1.0;" x1="295.5" x2="221" y1="370.1719" y2="370.1719"/><polygon fill="#181818" points="231,366.1719,221,370.1719,231,374.1719,227,370.1719" style="stroke:#181818;stroke-width:1.0;"/><line style="stroke:#181818;stroke-width:1.0;" x1="209" x2="209" y1="264.2031" y2="284.2031"/><polygon fill="#181818" points="205,274.2031,209,284.2031,213,274.2031,209,278.2031" style="stroke:#181818;stroke-width:1.0;"/><line style="stroke:#181818;stroke-width:1.0;" x1="209" x2="209" y1="382.1719" y2="402.1719"/><polygon fill="#181818" points="205,392.1719,209,402.1719,213,392.1719,209,396.1719" style="stroke:#181818;stroke-width:1.0;"/><!--MD5=[9e34f6f317ebbb514e88e6e97eec1328]
@startuml
title: Software distribution workflow

start
fork

: Register in Eureca (CIPS);

: Request IP clearance and
get advise on distribution;

fork again

:   Perform or request
vulnerability assessment;
end merge

if (Open Source) then (yes)
#palegreen\green:https://code.europa.eu;

else (no)
#orange:Commission Decision;

endif

stop
@enduml

PlantUML version 1.2022.8beta9(Unknown compile time)
(GPL source distribution)
Java Runtime: Java(TM) SE Runtime Environment
JVM: Java HotSpot(TM) 64-Bit Server VM
Default Encoding: UTF-8
Language: en
Country: US
--></g></svg>